お知らせ,臨時株主総会の模様を映像配信いたします。,http://www.mitsubishi-motors.com/jp/streaming/index.html,external
2016年11月24日,『リコール情報』に「デリカD:5、パジェロ、ランサー、アイ、i-MiEVの助手席用エアバッグについて」を追加しました。,http://recall.mitsubishi-motors.co.jp/Recall/displayselect.do?orderno=13935,external
2016年11月24日,『リコール情報』に「RVRのテールゲートについて」を追加しました。,http://recall.mitsubishi-motors.co.jp/Recall/displayselect.do?orderno=13936,external
2016年11月04日,『リコール情報』に「アウトランダー、アウトランダーPHEVのボデーについて」を追加しました。,http://recall.mitsubishi-motors.co.jp/Recall/displayselect.do?orderno=13918,external
お知らせ,ただ今、サーバーメンテナンスを行っています。その間、「愛着力サイト」など一部コンテンツはご利用いただけません。,http://www.mitsubishi-motors.co.jp/sp/#,
2016年11月01日,『リコール情報』に「RVRのフロントワイパーについて」を追加しました。,http://recall.mitsubishi-motors.co.jp/Recall/displayselect.do?orderno=13927,external
2016年11月01日,『リコール情報』に「アウトランダーのフロントワイパーについて」を追加しました。,http://recall.mitsubishi-motors.co.jp/Recall/displayselect.do?orderno=13926,external
2016年10月27日,デリカD:5 特別仕様車「ROADEST ROYAL TOURING」特設ページを公開しました。,http://www.mitsubishi-motors.co.jp/delica_d5/special/d5_portal/sp/roadest_royal_touring/,
2016年10月27日,デリカD:5特別仕様車「CHAMONIX」特設ページを公開しました。,http://www.mitsubishi-motors.co.jp/delica_d5/special/d5_portal/sp/chamonix/,
2016年09月09日,当社製車両（eKシリーズを除く）をご愛用いただいておりますお客様へのお知らせ,http://www.mitsubishi-motors.com/important/detailg420_jp/info01.html,external
2016年09月09日,損害賠償または一時金の対象車両検索ページ改定のお知らせ ,http://nenpi.mitsubishi-motors.co.jp/nenpi/Search.do,external
2016年08月25日,eKシリーズのお客様へのお支払い金申請受付（専用ウェブサイト）を開始しました。,https://important.mitsubishi-motors.co.jp/,external
2016年08月16日,インドネシア国際オートショー2016 スペシャルサイトにフォトギャラリーを追加しました。,http://www.mitsubishi-motors.com/jp/events/motorshow/2016/ims2016/,external
2016年08月04日,『リコール情報』に「eKワゴン、eKカスタム、eKスペース、eKスペースカスタムのドアについて」を追加しました。,http://recall.mitsubishi-motors.co.jp/Recall/displayselect.do?orderno=13879,external
2016年07月21日,インドネシア国際オートショー2016 スペシャルサイトを公開しました。,http://www.mitsubishi-motors.com/jp/events/motorshow/2016/ims2016/,external
2016年07月07日,『リコール情報』に「ディグニティのハイブリッドシステムについて」を追加しました。,http://recall.mitsubishi-motors.co.jp/Recall/displayselect.do?orderno=13848,external
2016年06月30日,『リコール情報』に「eKワゴン、eKスポーツ、トッポ、パジェロミニ」「デリカD:5、パジェロ」「デリカ（商用車）」「タウンボックス」に関する情報(計4件)を追加しました。,http://www.mitsubishi-motors.co.jp/support/recall/,
お知らせ,弊社製車両の燃費試験における不正行為に関する専用のお問い合わせ窓口をご用意しました。,http://www.mitsubishi-motors.co.jp/reference/index.html#inc_type,
2016年06月21日,eKシリーズの新届出燃費値について,http://www.mitsubishi-motors.com/important/detailg420_jp/info03.html,external
2016年06月21日,『リコール情報』に「パジェロのガソリンエンジンについて」を追加しました。,http://recall.mitsubishi-motors.co.jp/Recall/displayselect.do?orderno=13837,external
お知らせ,アウトランダーPHEV三菱リモートコントロールへの第三者によるアクセスに関するお知らせ,http://www.mitsubishi-motors.co.jp/important_news/20160613/index.html,external
2016年05月27日,『リコール情報』に「デリカD:2のエアバッグコントローラーについて」を追加しました。,http://recall.mitsubishi-motors.co.jp/Recall/displayselect.do?orderno=13818,external
2016年04月18日,2016 北京国際モーターショー スペシャルサイトを公開しました。,http://www.mitsubishi-motors.com/jp/events/motorshow/2016/bms2016/,external
2016年04月14日,『リコール情報』に「パジェロミニ、ミニキャブ、タウンボックスのエンジンについて」を追加しました。,http://recall.mitsubishi-motors.co.jp/Recall/displayselect.do?orderno=13790,external
2016年04月14日,『リコール情報』に「デリカD:3、デリカバン、ランサーカーゴのテールゲートについて」を追加しました。,http://recall.mitsubishi-motors.co.jp/Recall/displayselect.do?orderno=13803,external
2016年03月31日,eKカスタム スペシャルサイト「オートマチックハイビームがある生活」を公開しました。,http://www.mitsubishi-motors.co.jp/ek_custom/special/ahb/sp/,external
2016年03月31日,デリカD:5スペシャルサイトに Go Outdoorコンテンツを追加しました。,http://www.mitsubishi-motors.co.jp/delica_d5/special/d5_portal/sp/,external
2016年03月16日,『見上げるプロジェクト』を定期更新しました。,http://www.mitsubishi-motors.com/jp/events/star/index.html,external
2016年03月10日,ジュネーブモーターショー2016 スペシャルサイトにフォトレポートを追加しました。,http://www.mitsubishi-motors.com/jp/events/motorshow/2016/gms2016/,external
2016年03月02日,ジュネーブモーターショー2016 スペシャルサイトを更新しました。,http://www.mitsubishi-motors.com/jp/events/motorshow/2016/gms2016/,external
2016年02月29日,デリカD:5スペシャルサイトに「Go Winter」、「Go Movie」コンテンツを追加しました。,http://www.mitsubishi-motors.co.jp/delica_d5/special/d5_portal/sp/,external
2016年02月23日,ジュネーブモーターショー2016 スペシャルサイトを公開しました。,http://www.mitsubishi-motors.com/jp/events/motorshow/2016/gms2016/,external
2016年02月19日,『リコール情報』に「デリカD:5、パジェロの運転席エアバッグについて」を追加しました。,http://recall.mitsubishi-motors.co.jp/Recall/displayselect.do?orderno=13776,external
2016年02月19日,『リコール情報』に「デリカ(商用車)の運転席エアバッグについて(対象車の追加)」を追加しました。,http://recall.mitsubishi-motors.co.jp/Recall/displayselect.do?orderno=13769,external
2016年02月18日,『リコール情報』に「デリカD:5、アウトランダー、アイ、ギャラン、パジェロ、i-MiEV等8車種のライトスイッチについて」を追加しました。,http://recall.mitsubishi-motors.co.jp/Recall/displayselect.do?orderno=13747,external
2016年02月18日,『リコール情報』に「トライトンのライトスイッチについて」を追加しました。,http://recall.mitsubishi-motors.co.jp/Recall/displayselect.do?orderno=22301,external
2016年02月17日,『見上げるプロジェクト』を定期更新しました。,http://www.mitsubishi-motors.com/jp/events/star/index.html,external
2016年02月09日,「冬こそ、実感！三菱4WD」ページを公開しました。,http://www.mitsubishi-motors.co.jp/special/4wd/winter/,external
2016年02月05日,『リコール情報』に「デリカD:5のブレーキについて」を追加しました。,http://recall.mitsubishi-motors.co.jp/Recall/displayselect.do?orderno=13762,external
2016年02月03日,『CMライブラリー』にミラージュ「The Compact Standard」篇を追加しました。,http://www.mitsubishi-motors.co.jp/sp/cm/,
2016年01月22日,デリカD:5スペシャルサイトに 「PLAY THE NATURE! 雪山」篇 WEB限定ロングバージョン動画を追加しました。,http://www.mitsubishi-motors.co.jp/delica_d5/special/d5_portal/sp/,external
2015年12月25日,デリカD:5スペシャルサイトを更新しました。,http://www.mitsubishi-motors.co.jp/delica_d5/special/d5_portal/sp/,external
2015年12月25日,『CMライブラリー』にアウトランダーPHEV「4WD×電動DRIVE」篇とデリカD:5「PLAY THE NATURE!雪山」篇を追加しました。,http://www.mitsubishi-motors.co.jp/sp/cm/,
2015年12月17日,『リコール情報』に「三菱自動車純正用品 MiEV power BOXの自主改善の実施について」を追加しました。,http://www.mitsubishi-motors.co.jp/support/recall/others/detail/20.html,external
2015年12月17日,『CMライブラリー』にデリカD:2「THE BOYS' DELICA」篇を追加しました。,http://www.mitsubishi-motors.co.jp/sp/cm/,
2015年12月17日,『見上げるプロジェクト』を定期更新しました。,http://www.mitsubishi-motors.com/jp/events/star/index.html,external

